<?xml version="1.0" encoding="utf-8" ?>
<svg xmlns="http://www.w3.org/2000/svg" xmlns:xlink="http://www.w3.org/1999/xlink" width="24" height="23">
	<defs>
		<clipPath id="clip_0">
			<rect x="-317" y="-58" width="375" height="812" clip-rule="evenodd"/>
		</clipPath>
	</defs>
	<g clip-path="url(#clip_0)">
		<path fill="none" stroke="rgb(255,255,255)" stroke-width="1.5" stroke-miterlimit="4" transform="translate(0.5 0.5)" d="M20 16L20 10.5C20 6.849 17.691 3.744 14.46 2.541C14.238 1.103 13 0 11.5 0C10 0 8.758 1.103 8.537 2.541C5.305 3.744 3 6.849 3 10.5L3 16C3 17.657 1.656 19 0 19L23 19C21.341 19 20 17.657 20 16L20 16Z"/>
	</g>
	<defs>
		<clipPath id="clip_1">
			<rect x="-317" y="-58" width="375" height="812" clip-rule="evenodd"/>
		</clipPath>
	</defs>
	<g clip-path="url(#clip_1)">
		<path fill="none" stroke="rgb(255,255,255)" stroke-width="1.5" stroke-miterlimit="4" transform="translate(9 19.5)" d="M6 0C6 1.657 4.656 3 3 3C1.341 3 0 1.657 0 0"/>
	</g>

</svg>